…
## exercise3

In this example, I use building permits dataset and keep the positive
project value.

``` r
cleanr(building_permits,building_permits$project_value,0)
```

    ## # A tibble: 5,555 × 14
    ##    permit_n…¹ issue_date proje…² type_…³ address proje…⁴ build…⁵ build…⁶ appli…⁷
    ##    <chr>      <date>       <dbl> <chr>   <chr>   <chr>   <chr>   <chr>   <chr>  
    ##  1 DB-2019-0… 2020-03-04  997565 New Bu… 2251 B… "Low D… Sian G… "2177 … Mukhti…
    ##  2 DB-2019-0… 2020-03-04   15000 Demoli… 2253 B… "Low D… Kingsm… "11895… Mukhti…
    ##  3 BP-2020-0… 2020-03-05    8000 Additi… 870 W … "Field… Lerazo… "20200… Deniz …
    ##  4 BP-2020-0… 2020-03-05    8000 Additi… 151 E … "Field… Etro C… "924 C… Luba P…
    ##  5 DB-2019-0… 2020-03-05  678520 New Bu… 250 E … "Low D… AVS De… "7 E 4… Paul S…
    ##  6 BP-2019-0… 2020-03-06 1200000 New Bu… 3223 S… "High … Asante… "4004 … Farhan…
    ##  7 BP-2020-0… 2020-03-06    1500 Additi… 483 E … "Field… Gurind… "4558 … Gurind…
    ##  8 BP-2020-0… 2020-03-06   30000 Additi… 3480 L… "Field… Factor… "1631 … Nathal…
    ##  9 BP-2020-0… 2020-03-06  500000 Additi… 700 W … "Field… Fusion… "850 W… Sandra…
    ## 10 DB-2020-0… 2020-03-06   60000 Additi… 3168 E… "Field… Brilli… "1423 … Stepha…
    ## # … with 5,545 more rows, 5 more variables: applicant_address <chr>,
    ## #   property_use <chr>, specific_use_category <chr>, year <dbl>, bi_id <dbl>,
    ## #   and abbreviated variable names ¹​permit_number, ²​project_value,
    ## #   ³​type_of_work, ⁴​project_description, ⁵​building_contractor,
    ## #   ⁶​building_contractor_address, ⁷​applicant

I can also keep the project value higher than certain threshold. For
example, I keep high-value project whose value is larger than 100,000.

``` r
cleanr(building_permits,building_permits$project_value,100000)
```

    ## # A tibble: 2,912 × 14
    ##    permit_n…¹ issue_date proje…² type_…³ address proje…⁴ build…⁵ build…⁶ appli…⁷
    ##    <chr>      <date>       <dbl> <chr>   <chr>   <chr>   <chr>   <chr>   <chr>  
    ##  1 DB-2019-0… 2020-03-04  9.98e5 New Bu… 2251 B… "Low D… Sian G… "2177 … Mukhti…
    ##  2 DB-2019-0… 2020-03-05  6.79e5 New Bu… 250 E … "Low D… AVS De… "7 E 4… Paul S…
    ##  3 BP-2019-0… 2020-03-06  1.2 e6 New Bu… 3223 S… "High … Asante… "4004 … Farhan…
    ##  4 BP-2020-0… 2020-03-06  5   e5 Additi… 700 W … "Field… Fusion… "850 W… Sandra…
    ##  5 DB-2019-0… 2020-03-09  1.85e5 New Bu… 49 W 2… "Low D… Comfor… "9271 … Hilary…
    ##  6 DB-2019-0… 2020-03-10  9.93e5 New Bu… 479 E … "Low D… New Lo… "280 E… Gurjit…
    ##  7 DB-2019-0… 2020-03-10  2.25e5 New Bu… 483 E … "Low D… New Lo… "280 E… Gurjit…
    ##  8 BP-2019-0… 2020-03-11  1.69e5 Additi… 3264 O… "Field… EPS We… "15585… Jaspre…
    ##  9 DB-2019-0… 2020-03-11  1.93e5 New Bu… 1282 E… "Low D… Orbit … "833 E… Amarde…
    ## 10 DB-2019-0… 2020-03-11  1.6 e6 Additi… 2733 W… "High … Waterm… "955 U… Mallen…
    ## # … with 2,902 more rows, 5 more variables: applicant_address <chr>,
    ## #   property_use <chr>, specific_use_category <chr>, year <dbl>, bi_id <dbl>,
    ## #   and abbreviated variable names ¹​permit_number, ²​project_value,
    ## #   ³​type_of_work, ⁴​project_description, ⁵​building_contractor,
    ## #   ⁶​building_contractor_address, ⁷​applicant
…
